node_id,platform,x,y,z,room,mac,ip,status
"alixap1","alixap",21,14.8,7,"FT213","00:0d:b9:2b:1f:10","192.168.10.209","off"
"alixap2","alixap",19,0.7,7,"FT225","00:0d:b9:2b:27:70","192.168.10.210","off"
"alixap3","alixap",12,1.2,7,"FT224","00:0d:b9:2b:27:b4","192.168.10.211","off"
"ax2437","laptop",0,0,0,"FT000","3c:97:0e:4f:25:cd","192.168.10.135","off"
"tbot-unit02","twistbot",31.7,2,0.01,"FT226","f4:6d:04:2a:d1:d8","192.168.10.14","on"
"tbot-unit03","twistbot",31.7,3,0.01,"FT226","f4:6d:04:4f:43:aa","192.168.10.12","on"
"tbot-unit04","twistbot",31.7,4,0.01,"FT226","f4:6d:04:2a:d2:f9","192.168.10.16","on"
"tbot-mint01","twistbot",31.7,8,0.01,"FT226","00:01:c0:15:a7:9d","192.168.10.24","on"
"tplink01","tplink",1.5,12,14,"FT440","a0:f3:c1:a8:76:e8,a0:f3:c1:a8:76:e9,a0:f3:c1:a8:76:ea","192.168.10.101","on"
"tplink02","tplink",1,14.9,14,"FT440","a0:f3:c1:74:99:70,a0:f3:c1:74:99:71,a0:f3:c1:74:99:72","192.168.10.102","off"
"tplink03","tplink",13,0.7,7,"FT224","a0:f3:c1:a8:76:58,a0:f3:c1:a8:76:59,a0:f3:c1:a8:76:5a","192.168.10.103","off"
"tplink04","tplink",1.5,0.7,14,"FT423","a0:f3:c1:a8:76:d6,a0:f3:c1:a8:76:d7,a0:f3:c1:a8:76:d8","192.168.10.104","on"
"tplink05","tplink",11,14.9,11,"FT336","a0:f3:c1:49:36:44,a0:f3:c1:49:36:45,A0:F3:C1:49:36:46","192.168.10.105","on"
"tplink06","tplink",11,14.8,7,"FT234","a0:f3:c1:49:36:da,a0:f3:c1:49:36:db,a0:f3:c1:49:36:dc","192.168.10.106","off"
"tplink07","tplink",24,0.7,14,"FT430","a0:f3:c1:49:37:a0,a0:f3:c1:49:37:a1,a0:f3:c1:49:37:a2","192.168.10.107","on"
"tplink08","tplink",31,0.7,7,"FT226","64:70:02:3e:aa:10,64:70:02:3e:aa:11,64:70:02:3e:aa:12","192.168.10.108","off"
"tplink09","tplink",2,0.7,7,"FT222","64:70:02:3e:aa:d8,64:70:02:3e:aa:d9,64:70:02:3e:aa:da","192.168.10.109","on"
"tplink10","tplink",4,14.8,7,"FT235","64:70:02:3e:aa:ee,64:70:02:3e:aa:ef,64:70:02:3e:aa:f0","192.168.10.110","on"
"tplink11","tplink",21.5,14.8,7,"FT231","64:70:02:3e:9f:62,64:70:02:3e:9f:63,64:70:02:3e:9f:64","192.168.10.111","on"
"tplink12","tplink",12.3,0.7,14,"FT426","64:66:b3:54:bc:60,64:66:b3:54:bc:61,64:66:b3:54:bc:62","192.168.10.112","on"
"tplink13","tplink",21.3,14.9,14,"FT435","64:66:b3:6f:8c:70,64:66:b3:6f:8c:71,64:66:b3:6f:8c:72","192.168.10.113","on"
"tplink14","tplink",2,0.7,11,"FT323","64:66:b3:54:cb:c2,64:66:b3:54:cb:c3,64:66:b3:54:cb:c4","192.168.10.114","off"
"tplink15","tplink",21.5,14.9,11,"FT334","64:66:b3:c2:52:f8,64:66:b3:c2:52:f9,64:66:b3:c2:52:fA","192.168.10.115","on"
"tplink16","tplink",2.16,11,14,"FT440","64:66:b3:6f:90:2a,64:66:b3:6f:90:2b,64:66:b3:6f:90:2c","192.168.10.116","off"
"tplink17","tplink",2.17,11,14,"FT440","64:66:b3:54:c9:fe,64:66:b3:54:c9:ff,64:66:b3:54:ca:00","192.168.10.117","off"
"tplink18","tplink",5,2,14,"FT324","64:66:b3:ce:21:da,64:66:b3:ce:21:db,64:66:b3:ce:21:dc","192.168.10.118","off"
"tplink19","tplink",11,14.9,14,"FT437","64:66:b3:6f:90:f8,64:66:b3:6f:90:f9,64:66:b3:6f:90:fa","192.168.10.119","on"
"tplink20","tplink",12.9,0.7,11,"FT326","64:66:b3:c6:e6:cc,64:66:b3:c6:e6:cd,64:66:b3:c6:e6:ce","192.168.10.120","on"
"tplink21","tplink",5,1,11,"FT324","64:66:b3:6f:8d:40,64:66:b3:6f:8d:41,64:66:b3:6f:8d:42","192.168.10.121","off"
"tplink22","tplink",29,0.7,11,"FT330","64:66:b3:6F:8d:58,64:66:b3:6F:8d:59,64:66:b3:6F:8d:5a","192.168.10.122","on"
"tplink23","tplink",2,14.9,11,"FT338","64:66:b3:6f:91:28,64:66:b3:6f:91:29,64:66:b3:6f:91:2a","192.168.10.123","on"

